id,party
1,自民
2,自民
3,自民
4,自民
5,自民
6,自民
7,自民
8,自民
9,自民
10,自民
11,自民
12,自民
13,自民
14,自民
15,自民
16,自民
17,自民
18,自民
19,自民
20,自民
21,自民
22,自民
23,自民
24,自民
25,自民
26,自民
27,自民
28,自民
29,自民
30,自民
31,自民
32,自民
33,自民
34,自民
35,自民
36,自民
37,自民
38,自民
39,自民
40,自民
41,自民
42,自民
43,自民
44,自民
45,自民
46,自民
47,自民
48,自民
49,自民
50,自民
51,自民
52,自民
53,自民
54,自民
55,自民
56,自民
57,自民
58,公明
59,公明
60,公明
61,公明
62,公明
63,公明
64,公明
65,公明
66,公明
67,公明
68,公明
69,公明
70,公明
71,公明
72,公明
73,公明
74,公明
75,公明
76,公明
77,公明
78,公明
79,公明
80,民主
81,民主
82,民主
83,民主
84,民主
85,民主
86,民主
87,民主
88,民主
89,民主
90,民主
91,民主
92,民主
93,民主
94,民主
95,民主
96,民主
97,民主
98,民主
99,民主
100,民主
101,民主
102,民主
103,民主
104,民主
105,民主
106,民主
107,民主
108,民主
109,民主
110,維新
111,維新
112,維新
113,維新
114,維新
115,維新
116,維新
117,維新
118,維新
119,維新
120,維新
121,維新
122,維新
123,維新
124,維新
125,維新
126,維新
127,維新
128,維新
129,維新
130,維新
131,維新
132,維新
133,維新
134,維新
135,維新
136,維新
137,維新
138,維新
139,維新
140,維新
141,維新
142,維新
143,維新
144,維新
145,維新
146,維新
147,維新
148,維新
149,維新
150,みんな
151,みんな
152,みんな
153,みんな
154,みんな
155,みんな
156,みんな
157,みんな
158,みんな
159,みんな
160,みんな
161,みんな
162,みんな
163,みんな
164,未来
165,未来
166,未来
167,未来
168,未来
169,未来
170,未来
171,共産
172,共産
173,共産
174,共産
175,共産
176,共産
177,共産
178,共産
179,社民
180,大地
