id,party
1,自民
2,自民
3,自民
4,自民
5,自民
6,自民
7,自民
8,自民
9,自民
10,自民
11,自民
12,自民
13,自民
14,自民
15,自民
16,自民
17,自民
18,自民
19,自民
20,自民
21,自民
22,自民
23,自民
24,自民
25,自民
26,自民
27,自民
28,自民
29,自民
30,自民
31,自民
32,自民
33,自民
34,自民
35,自民
36,自民
37,自民
38,自民
39,自民
40,自民
41,自民
42,自民
43,自民
44,自民
45,自民
46,自民
47,自民
48,自民
49,自民
50,自民
51,自民
52,自民
53,自民
54,自民
55,自民
56,自民
57,自民
58,自民
59,自民
60,自民
61,自民
62,自民
63,自民
64,自民
65,自民
66,自民
67,自民
68,自民
69,公明
70,公明
71,公明
72,公明
73,公明
74,公明
75,公明
76,公明
77,公明
78,公明
79,公明
80,公明
81,公明
82,公明
83,公明
84,公明
85,公明
86,公明
87,公明
88,公明
89,公明
90,公明
91,公明
92,公明
93,公明
94,公明
95,民主
96,民主
97,民主
98,民主
99,民主
100,民主
101,民主
102,民主
103,民主
104,民主
105,民主
106,民主
107,民主
108,民主
109,民主
110,民主
111,民主
112,民主
113,民主
114,民主
115,民主
116,民主
117,民主
118,民主
119,民主
120,民主
121,民主
122,民主
123,民主
124,民主
125,民主
126,民主
127,民主
128,民主
129,民主
130,維新
131,維新
132,維新
133,維新
134,維新
135,維新
136,維新
137,維新
138,維新
139,維新
140,維新
141,維新
142,維新
143,維新
144,維新
145,維新
146,維新
147,維新
148,維新
149,維新
150,維新
151,維新
152,維新
153,維新
154,維新
155,維新
156,維新
157,維新
158,維新
159,維新
160,共産
161,共産
162,共産
163,共産
164,共産
165,共産
166,共産
167,共産
168,共産
169,共産
170,共産
171,共産
172,共産
173,共産
174,共産
175,共産
176,共産
177,共産
178,共産
179,共産
180,社民
